{
  "options": {
    "run": true,
    "dryrun": true,
    "date_from": "2021-01-01",
    "root_dir": "./podcasts",
    "template": "{rootdir}/{podcast}/{year}/{year}-{month}-{day} - {title}{ext}",
    "user_agent": "Mozilla/5.0"
  },
  "podcasts": [
    {
      "url": "https://www.omnycontent.com/d/playlist/e73c998e-6e60-432f-8610-ae210140c5b1/a91018a4-ea4f-4130-bf55-ae270180c327/44710ecc-10bb-48d1-93c7-ae270180c33e/podcast.rss",
      "title": "Stuff You Should Know"
    },
    {
      "url": "https://insertcredit.podcast.audio/@show/feed.xml",
      "title": "The Insert Credit Show"
    },
    {
      "url": "https://feeds.acast.com/public/shows/drifting-off-with-joe-pera",
      "title": "Drifting Off with Joe Pera"
    },
    {
      "url": "https://anchor.fm/s/8fa134cc/podcast/rss",
      "title": "Pro Baduk/Go/Weiqi of the week"
    },
    {
      "url": "https://anchor.fm/s/2a5bbf9c/podcast/rss",
      "title": "Learn German | Deutsch lernen | ExpertlyGerman Podcast"
    },
    {
      "url": "https://www.easygerman.org/podcast/rss",
      "title": "Easy German: Learn German with native speakers | Deutsch lernen mit Muttersprachlern"
    },
    {
      "url": "https://feeds.simplecast.com/kra1JvH9",
      "title": "Radiolingo"
    },
    {
      "url": "https://feeds.publicradio.org/public_feeds/moment-of-um/rss/rss.rss",
      "title": "Moment of Um"
    },
    {
      "url": "https://feeds.soundcloud.com/users/soundcloud:users:162749044/sounds.rss",
      "title": "When in Rome"
    },
    {
      "url": "https://anchor.fm/s/305c28b4/podcast/rss",
      "title": "Toenails"
    },
    {
      "url": "http://feeds.si.edu/SmithsonianSidedoor",
      "title": "Sidedoor"
    },
    {
      "url": "https://eonspodcast.pbs.org/",
      "title": "Eons: Mysteries of Deep Time"
    },
    {
      "url": "https://www.abc.net.au/radionational/feed/12754606/podcast.xml",
      "title": "Stuff The British Stole"
    },
    {
      "url": "http://www.mattsmithpodcast.com/rs0508/rs0508.xml",
      "title": "Raising Standards"
    },
    {
      "url": "https://feeds.simplecast.com/ddLKZiwV",
      "title": "Baby Geniuses"
    },
    {
      "url": "https://www.spreaker.com/show/5634537/episodes/feed",
      "title": "Crime Pays But Botany Doesn't"
    },
    {
      "url": "https://blart.libsyn.com/rss",
      "title": "Til Death Do Us Blart"
    },
    {
      "url": "https://feeds.simplecast.com/Urk3897_",
      "title": "The Besties"
    },
    {
      "url": "https://feeds.feedburner.com/nhscouchto5k",
      "title": "NHS Couch to 5K"
    },
    {
      "url": "https://scienceofultra.libsyn.com/rss",
      "title": "Science Of Ultra"
    },
    {
      "url": "https://feed.podbean.com/hiddengnome/feed.xml",
      "title": "The Hidden Gnome Podcast"
    },
    {
      "url": "https://feeds.megaphone.fm/larry-wilmore",
      "title": "Larry Wilmore: Black on the Air"
    },
    {
      "url": "https://blogs.getty.edu/podcast/feed/podcast",
      "title": "Getty Art + Ideas"
    },
    {
      "url": "https://www.indefenseofplants.com/podcast?format=rss",
      "title": "In Defense of Plants Podcast"
    },
    {
      "url": "https://feeds.simplecast.com/5lbWOVqN",
      "title": "I, Podius"
    },
    {
      "url": "https://www.omnycontent.com/d/playlist/e73c998e-6e60-432f-8610-ae210140c5b1/cfb428ef-eafc-44d0-9d09-ae2701747e6f/fb626e1f-112c-4246-a40d-ae2701747e7d/podcast.rss",
      "title": "Stuff You Missed in History Class"
    },
    {
      "url": "https://feed.podbean.com/commondescentpodcast/feed.xml",
      "title": "The Common Descent Podcast"
    },
    {
      "url": "https://historyofrome.libsyn.com/rss",
      "title": "The History of Rome"
    },
    {
      "url": "https://rss.art19.com/get-played",
      "title": "Get Played"
    },
    {
      "url": "https://feeds.simplecast.com/q8x9cVws",
      "title": "Judge John Hodgman"
    },
    {
      "url": "https://audioboom.com/channels/5094626.rss",
      "title": "Myths and Legends"
    },
    {
      "url": "https://feeds.simplecast.com/cYQVc__c",
      "title": "The Adventure Zone"
    },
    {
      "url": "https://feeds.simplecast.com/wjQvYtdl",
      "title": "My Brother, My Brother And Me"
    },
    {
      "url": "https://feeds.acast.com/public/shows/0185cea5-9e3b-4b82-a887-26f91f92765f",
      "title": "Nature Podcast"
    },
    {
      "url": "https://feeds.simplecast.com/Ao0C24M8",
      "title": "How Did This Get Made?"
    },
    {
      "url": "https://www.latrobe.edu.au/marketing/assets/podcasts/rssfeeds/caesar.xml",
      "title": "Emperors of Rome"
    },
    {
      "url": "https://feeds.soundcloud.com/users/soundcloud:users:166155612/sounds.rss",
      "title": "Highlander Rewatched"
    },
    {
      "url": "http://smodcast.smodcast.libsynpro.com/rss",
      "title": "SModcast"
    },
    {
      "url": "https://feed.syntax.fm/rss",
      "title": "Syntax - Tasty Web Development Treats"
    }
  ]
}